649047517
51679471
1341490763
1897081205
584821421
216888361
245565680
1464168967
1682978415
952269634
661037176
1159309786
738820970
418439876
1294574333
900540022
1201288129
1205246985
1148913807
588822528
1114135536
1780802724
1296295371
1971163114
1177262897
2108774973
113601276
1746872806
904156558
731338539
251151656
1061195385
1550844347
906224382
1386072025
1309493556
373471183
1384358984
171705641
2004166315
610841239
357723308
725004904
2020874259
151216865
1433929230
213162122
1256394246
2117018087
705326861
887598027
2025212076
1864286124
926272157
1511970534
1321099843
1951833111
634402018
1960610671
467489943
192649157
531420062
140938806
1618575626
1014502046
715618945
1333809991
1116949435
546750883
368524912
366428609
545471627
1986629521
336123422
954059136
810323390
554638213
573494435
710996448
2107915213
264752199
1999961774
1830154279
1918605818
232179208
1091263500
7580141
1234351192
1157287381
1300192154
1366216035
1987385023
1547681011
296267133
393561330
636991264
1242396075
798944770
1210591181
1259675733
1600398610
1484161863
2100446180
1100971154
1299559126
54864620
1393596025
328454365
1876953427
1115655483
1842535604
525868043
1980935789
2100407251
1841315616
1088302102
286244912
693752463
842675347
1547030559
1942017096
2020121243
1590252892
1211024251
667108296
968046802
2004525377
1619585547
72885975
1311727480
1371727376
1743711934
1050667340
1604856052
1197883651
1757795080
1523668363
501752534
1527822370
108428856
1884065851
1239847320
495205576
909707796
1891964467
2095865791
538707595
679563497
586049494
1024461039
567731524
19815947
1427354684
464228289
1972147064
1567848422
455143378
562442922
1224659114
1193450937
1757736593
186540582
558275165
1199321417
1998148215
1466738589
1783213033
150254937
1069283278
1303275454
721577271
1670508771
290184078
579604869
545548759
813597045
1501001785
236426209
1731287104
711232167
185131702
1970939506
1680592526
1133972749
518324617
172316493
2120684409
1640273500
2071348056
126510073
1331527755
1061347185
382619575
1194787415
1022094510
164225850
46073673
693069143
1372635360
1573470984
743553247
1668865921
629091647
1251361350
2029060965
971565240
1117855956
1991145868
880316093
1560401862
2106792289
1980505612
1776776020
866526405
1322796769
197897015
866767327
2136855014
813312475
554428025
484589058
23908849
1726855171
952771168
1661739307
995728148
1617900633
869886058
1604965843
507265833
1900483791
165311935
1606191089
2003571688
191565811
1775083912
111256956
1388706217
1247681894
570767183
964938246
1138355391
1103905030
2129950006
2100247333
2010655160
1235893227
1665301107
709978134
15605554
1819410183
1168620461
176562218
400579627
819634109
822451726
679248666
213420138
1061765746
1241923966
839638610
1775785525
406441593
167590365
320779104
1768181896
1758085722
1683957635
945976809
166839373
1769157618
699141132
68269528
699184450
35464954
281812682
592892044
1666418311
109822853
1824637284
215688063
1509148638
427931765
1285636415
271339274
982250365
754909768
998658009
1789074746
1996841041
640968677
381324171
234113459
1072480945
1951350123
813681987
992481168
1181643416
2133052028
2000969209
1056129192
1430915296
248500194
1054761738
562914250
1984748015
1272331145
158070591
1280049394
1695269089
2020808424
1963022388
2101461326
209005321
294608058
1288927670
1316583386
1394202466
1241300244
1921226821
2137068909
1331496658
1516981199
701251702
1962391967
236933936
1247388832
626433211
747430912
914277966
1491329232
1323357582
1368265885
92939789
801465310
525525712
91990500
1655078202
1237052319
1889617232
368907833
2088054119
15057424
239855943
496540404
1998916950
1340955404
1342469301
330549667
1400216254
317763762
854838201
548612369
156690113
828472048
1901048553
590882168
464879786
716647522
1782712511
1630175940
1204234369
2035523399
1150323578
129862939
1724488070
686057336
553800365
375022007
762021268
1665437573
671651846
1773044270
247135996
1264943413
1217660793
403869155
1952999397
956489014
1549780581
2103582489
176718066
458102323
70745661
913494205
1868593504
502177662
1016820868
1665075398
559054383
762018188
1043100000
727702577
2001888919
814854774
1770650604
1275087910
192170756
1033833633
2022116874
734544082
138261560
1236383948
1280528246
836587760
650587297
1483642454
1767129977
261238645
1857022307
1323261937
1871829242
1711505881
1166850539
885502593
674268284
1357729799
1904370487
1293026578
969504962
723757691
1331911281
1327574663
1898334501
1602666612
267521416
734714802
1029598974
1958428513
894908462
1760706670
2031462001
479677503
1642910574
1103596799
