1086515991
585325367
446426167
1412489496
1265500687
1003728737
201967843
582888570
1762268145
700402857
233642167
1720842420
909316034
600219532
2078486410
1817326445
312704458
1307383693
1584521125
2096027648
232765588
883328325
1707112979
284858596
1263034234
604894477
201765542
1958550539
1579738985
361007493
1844131751
509332516
602345799
1618928091
1979935584
492489734
1990842128
651270312
128178248
1914119031
602150516
1562013035
451924990
478805305
303583368
1305851228
529645501
1611159462
7714311
1725749091
132304381
463890042
825586982
225240059
1326907791
1717798016
1463248732
110009372
500485425
449309630
1589275281
397415348
1670455325
671580844
1507730081
1471249813
1788168371
1200537844
535294881
1187029448
341116237
1829569181
1344767534
1539969816
939867654
1894765389
610982537
462593505
1820928395
66023881
1522191704
1448354710
2025118480
2036163536
895103550
872229490
571545337
274605925
411646411
754373774
1041489438
479767849
681290940
1318013389
1967814618
1238254765
691948642
827597727
153575774
2143580142
1293729976
1231988164
505829291
253667612
1168430230
856575434
2067072348
821265764
1993787378
1622919210
407779966
957509443
1250443535
420080364
50230422
1007739865
414997143
2119348242
497993254
1942088357
1463695904
704355212
1977312942
10698259
785714523
1352063218
824899977
945649463
562019623
1744295080
1024937430
996594104
1516641599
765715126
97211928
1613853527
14607791
899134423
1647614386
766049625
2006885980
738094786
2082122273
681082600
1327281934
2036719058
1769898856
1395393945
429435259
1697380806
1248942310
170300163
57298274
1051469903
905566618
1875789476
833713265
1128291923
684972618
735266455
1933087750
472693760
1608878172
1599781381
1467080373
1276550968
1886725247
505063724
882207854
131559956
739267452
1411303520
1847893278
713929755
1453197207
1945114325
1255018534
605925991
1861326071
1033118636
187226666
61156315
1094274951
7663678
1796202639
1867451982
1658904258
1034463529
474805958
1486739617
1224245506
929112096
824136577
74082580
1127935457
1932257305
558963317
1040123194
544027517
1405966804
841465196
1255664267
1340262275
1312735050
1837728838
200835624
1056436931
247676308
541421672
1432007291
1482812067
2042729304
578436133
574455607
1760792033
714932306
1809774087
568248670
150995295
1022364684
1381332249
1540279873
1691275168
1388481479
319262174
1231075043
776102910
1316898616
898903984
1019283320
239870686
420444937
1649078882
2118596997
1328291877
1141056664
2171851
1993348159
971819299
527324875
1345767258
1838329306
564108930
1443968702
1469680630
870168904
306059974
1116281727
431860473
1757703398
1158107423
1702155180
127695997
771545379
1586974752
443731475
1799390582
1929660172
1454347136
1822764350
727146607
571196087
1538740786
1029890037
2037878656
1916972838
1200290388
1867218551
325602662
533137847
1358553570
938204036
371609469
54642467
1065719215
2003923251
2058565718
620222944
589191812
822957586
239314020
1888120729
1296909251
2039462029
1979135070
738039390
891182589
1795762232
1074098014
1170252600
1703616178
1752105014
1606915354
1538396739
1787731110
1051214868
148029629
771291543
2110878704
1713915962
2001495749
146232438
1988006999
219476576
1808784197
782674255
127099896
1685406261
1375002442
1117229223
1238836588
1119748454
417286342
1461592462
30232224
182602497
717465287
1920026218
1239892742
1422495239
649972697
95661929
1747134796
1233065658
712253333
2084619482
1547968169
1822514287
1270337860
2016394413
1751727857
174668648
2127655717
1545707174
1452047795
957541233
374786104
12333640
73410931
813439363
1896282817
194222270
1718209427
1811888848
2128335088
1476481171
621030124
1234673726
583286088
1735168677
1892456005
579467075
1241861082
1535894118
1073751492
870431210
679926577
1107578065
226779234
505384033
895768665
193759445
2113922052
477331459
225926514
1166254826
1815947309
824654754
44908303
351213995
577140509
159514465
1589661568
1671510236
1571256170
1740821643
1328696435
1818194059
256684461
2147280267
1071793954
2069397902
98683981
28307906
1645958908
910753833
2011205383
1366590489
1953347077
316481957
812782806
1782444169
1998969269
1639135036
555395918
1851014242
2008009696
27276656
2070692932
2088581341
426765097
1885296083
2144283603
1867167412
1689873867
1096825565
1290649789
487978282
1961832400
1033706938
1416190325
928212043
1756268173
143871486
593291567
302716282
868490579
346887442
1103418943
917588969
829349521
1125342669
24465353
991012132
1410491181
820871062
2058078110
1888648025
1344754345
2099185506
1181779555
1692494727
281081812
1809616908
325133039
35564441
1845181349
1022592703
179505700
1970950476
332734017
1696732312
1980624305
1983527722
1870793694
322664155
415810912
1087416836
1277213201
134825471
196859102
575262633
704317152
207841579
1290138300
388243944
1622279604
1610590597
1789700429
570834528
1703986603
240396827
1759590184
652763320
1066564752
928829539
1566788619
865798208
270755331
1664692799
540099461
1800053574
752068460
881477520
26984815
802781298
1029926315
1591167479
388407745
